<?xml version="1.0" encoding="UTF-8"?>
<svg width="158px" height="29px" viewBox="0 0 158 29" version="1.1" xmlns="http://www.w3.org/2000/svg" xmlns:xlink="http://www.w3.org/1999/xlink">
    <!-- Generator: Sketch 41.2 (35397) - http://www.bohemiancoding.com/sketch -->
    <title>Group 7</title>
    <desc>Created with Sketch.</desc>
    <defs></defs>
    <g id="Website-Vaizr" stroke="none" stroke-width="1" fill="none" fill-rule="evenodd">
        <g id="V2-Copy-13" transform="translate(-170.000000, -5144.000000)" fill="#FFFFFF">
            <g id="Group-7" transform="translate(170.000000, 5144.000000)">
                <path d="M42.177388,19.83908 L45.517228,19.83908 C46.1732713,19.83908 46.6454166,19.7048913 46.933678,19.43651 C47.2219395,19.1681287 47.366068,18.7258031 47.366068,18.10952 L47.366068,16.37996 C47.366068,15.7636769 47.2169695,15.3263213 46.918768,15.06788 C46.6205665,14.8094387 46.1335114,14.68022 45.457588,14.68022 L42.177388,14.68022 C41.9587069,14.68022 41.849368,14.7895589 41.849368,15.00824 L41.849368,19.51106 C41.849368,19.7297411 41.9587069,19.83908 42.177388,19.83908 Z M42.177388,11.60876 L45.219028,11.60876 C45.8551912,11.60876 46.3223665,11.4745713 46.620568,11.20619 C46.9187695,10.9378087 47.067868,10.4954831 47.067868,9.8792 L47.067868,8.71622 C47.067868,8.09993692 46.9237395,7.65761134 46.635478,7.38923 C46.3472166,7.12084866 45.8850112,6.98666 45.248848,6.98666 L42.177388,6.98666 C41.9587069,6.98666 41.849368,7.09599891 41.849368,7.31468 L41.849368,11.28074 C41.849368,11.4994211 41.9587069,11.60876 42.177388,11.60876 Z M38.062228,22.37378 L38.062228,4.45196 C38.062228,4.03447791 38.2709659,3.82574 38.688448,3.82574 L45.845248,3.82574 C47.4157759,3.82574 48.6284438,4.24321583 49.483288,5.07818 C50.3381323,5.91314417 50.765548,7.10593225 50.765548,8.65658 L50.765548,9.8792 C50.765548,11.5690084 49.9802959,12.6623975 48.409768,13.1594 C49.204972,13.2786806 49.8411256,13.6017274 50.318248,14.12855 C50.7953704,14.6553726 51.033928,15.4058351 51.033928,16.37996 L51.033928,18.16916 C51.033928,19.7198078 50.6065123,20.9125958 49.751668,21.74756 C48.8968238,22.5825242 47.6940958,23 46.143448,23 L38.688448,23 C38.2709659,23 38.062228,22.7912621 38.062228,22.37378 Z M64.742448,23 L58.152228,23 C56.5817002,23 55.3690323,22.5825242 54.514188,21.74756 C53.6593437,20.9125958 53.231928,19.7098679 53.231928,18.13934 L53.231928,12.65246 C53.231928,11.0819321 53.6593437,9.87920417 54.514188,9.04424 C55.3690323,8.20927583 56.5817002,7.7918 58.152228,7.7918 L60.508008,7.7918 C62.0785359,7.7918 63.2912037,8.20927583 64.146048,9.04424 C65.0008923,9.87920417 65.428308,11.0819321 65.428308,12.65246 L65.428308,16.4396 C65.428308,16.8570821 65.2195701,17.06582 64.802088,17.06582 L57.317268,17.06582 C57.0787068,17.06582 56.959428,17.1751589 56.959428,17.39384 L56.959428,18.04988 C56.959428,18.6661631 57.0936167,19.1084887 57.361998,19.37687 C57.6303794,19.6452513 58.0826448,19.77944 58.718808,19.77944 L64.742448,19.77944 C65.1599301,19.77944 65.368668,19.9981178 65.368668,20.43548 L65.368668,22.4036 C65.368668,22.6222811 65.3239385,22.7763496 65.234478,22.86581 C65.1450176,22.9552704 64.9810092,23 64.742448,23 Z M57.317268,14.53112 L61.372788,14.53112 C61.5914691,14.53112 61.700808,14.4217811 61.700808,14.2031 L61.700808,12.77174 C61.700808,12.1355768 61.5715893,11.6882813 61.313148,11.42984 C61.0547067,11.1713987 60.6074112,11.04218 59.971248,11.04218 L58.718808,11.04218 C58.0826448,11.04218 57.6353493,11.1713987 57.376908,11.42984 C57.1184667,11.6882813 56.989248,12.1355768 56.989248,12.77174 L56.989248,14.2031 C56.989248,14.4217811 57.0985869,14.53112 57.317268,14.53112 Z M76.712728,23 L74.178028,23 C73.7605459,23 73.551808,22.7912621 73.551808,22.37378 L73.551808,4.45196 C73.551808,4.03447791 73.7605459,3.82574 74.178028,3.82574 L81.275188,3.82574 C82.8258358,3.82574 84.0385036,4.25315573 84.913228,5.108 C85.7879524,5.96284427 86.225308,7.16557225 86.225308,8.71622 L86.225308,11.04218 C86.225308,13.2886312 85.3406569,14.7796163 83.571328,15.51518 L83.571328,15.63446 L86.762068,22.28432 C86.9409889,22.7614424 86.7720106,23 86.255128,23 L83.839708,23 C83.4818662,23 83.2234288,22.9602404 83.064388,22.88072 C82.9053472,22.8011996 82.7761285,22.6322213 82.676728,22.37378 L79.694728,15.93266 L77.696788,15.93266 C77.4582268,15.93266 77.338948,16.0419989 77.338948,16.26068 L77.338948,22.37378 C77.338948,22.7912621 77.1302101,23 76.712728,23 Z M77.666968,12.89102 L80.589328,12.89102 C81.2254912,12.89102 81.6926665,12.7568313 81.990868,12.48845 C82.2890695,12.2200687 82.438168,11.787683 82.438168,11.19128 L82.438168,8.86532 C82.438168,8.24903692 82.2890695,7.80174139 81.990868,7.52342 C81.6926665,7.24509861 81.2254912,7.10594 80.589328,7.10594 L77.666968,7.10594 C77.4482869,7.10594 77.338948,7.21527891 77.338948,7.43396 L77.338948,12.563 C77.338948,12.7816811 77.4482869,12.89102 77.666968,12.89102 Z M99.993468,23 L93.403248,23 C91.8327202,23 90.6200523,22.5825242 89.765208,21.74756 C88.9103637,20.9125958 88.482948,19.7098679 88.482948,18.13934 L88.482948,12.65246 C88.482948,11.0819321 88.9103637,9.87920417 89.765208,9.04424 C90.6200523,8.20927583 91.8327202,7.7918 93.403248,7.7918 L95.759028,7.7918 C97.3295559,7.7918 98.5422237,8.20927583 99.397068,9.04424 C100.251912,9.87920417 100.679328,11.0819321 100.679328,12.65246 L100.679328,16.4396 C100.679328,16.8570821 100.47059,17.06582 100.053108,17.06582 L92.568288,17.06582 C92.3297268,17.06582 92.210448,17.1751589 92.210448,17.39384 L92.210448,18.04988 C92.210448,18.6661631 92.3446367,19.1084887 92.613018,19.37687 C92.8813994,19.6452513 93.3336648,19.77944 93.969828,19.77944 L99.993468,19.77944 C100.41095,19.77944 100.619688,19.9981178 100.619688,20.43548 L100.619688,22.4036 C100.619688,22.6222811 100.574958,22.7763496 100.485498,22.86581 C100.396038,22.9552704 100.232029,23 99.993468,23 Z M92.568288,14.53112 L96.623808,14.53112 C96.8424891,14.53112 96.951828,14.4217811 96.951828,14.2031 L96.951828,12.77174 C96.951828,12.1355768 96.8226093,11.6882813 96.564168,11.42984 C96.3057267,11.1713987 95.8584312,11.04218 95.222268,11.04218 L93.969828,11.04218 C93.3336648,11.04218 92.8863693,11.1713987 92.627928,11.42984 C92.3694867,11.6882813 92.240268,12.1355768 92.240268,12.77174 L92.240268,14.2031 C92.240268,14.4217811 92.3496069,14.53112 92.568288,14.53112 Z M108.066008,23 L107.350328,23 C105.7798,23 104.567132,22.5825242 103.712288,21.74756 C102.857444,20.9125958 102.430028,19.7098679 102.430028,18.13934 L102.430028,12.65246 C102.430028,11.0819321 102.857444,9.87920417 103.712288,9.04424 C104.567132,8.20927583 105.7798,7.7918 107.350328,7.7918 L114.238748,7.7918 C114.67611,7.7918 114.894788,8.00053791 114.894788,8.41802 L114.894788,22.37378 C114.894788,22.7912621 114.67611,23 114.238748,23 L111.733868,23 C111.316386,23 111.107648,22.7912621 111.107648,22.37378 L111.107648,21.38972 L110.988368,21.38972 C110.769687,21.9264827 110.382031,22.3290487 109.825388,22.59743 C109.268745,22.8658113 108.682291,23 108.066008,23 Z M111.107648,17.45348 L111.107648,11.40002 C111.107648,11.1813389 110.988369,11.072 110.749808,11.072 L107.946728,11.072 C107.310565,11.072 106.863269,11.2061887 106.604828,11.47457 C106.346387,11.7429513 106.217168,12.1952168 106.217168,12.83138 L106.217168,17.96042 C106.217168,18.5965832 106.346387,19.0488487 106.604828,19.31723 C106.863269,19.5856113 107.310565,19.7198 107.946728,19.7198 L109.050068,19.7198 C110.421795,19.7198 111.107648,18.9643676 111.107648,17.45348 Z M122.967328,23 L121.744708,23 C120.21394,23 119.055942,22.5825242 118.270678,21.74756 C117.485414,20.9125958 117.092788,19.7098679 117.092788,18.13934 L117.092788,12.65246 C117.092788,11.0819321 117.485414,9.87920417 118.270678,9.04424 C119.055942,8.20927583 120.21394,7.7918 121.744708,7.7918 L122.967328,7.7918 C123.583611,7.7918 124.170065,7.92598866 124.726708,8.19437 C125.283351,8.46275134 125.671007,8.86531732 125.889688,9.40208 L126.008968,9.40208 L126.008968,2.66276 C126.008968,2.24527791 126.217706,2.03654 126.635188,2.03654 L129.169888,2.03654 C129.58737,2.03654 129.796108,2.24527791 129.796108,2.66276 L129.796108,22.37378 C129.796108,22.7912621 129.58737,23 129.169888,23 L126.635188,23 C126.217706,23 126.008968,22.7912621 126.008968,22.37378 L126.008968,21.38972 L125.889688,21.38972 C125.671007,21.9264827 125.283351,22.3290487 124.726708,22.59743 C124.170065,22.8658113 123.583611,23 122.967328,23 Z M126.008968,17.45348 L126.008968,13.33832 C126.008968,11.8274324 125.323115,11.072 123.951388,11.072 L122.609488,11.072 C121.973325,11.072 121.526029,11.2061887 121.267588,11.47457 C121.009147,11.7429513 120.879928,12.1952168 120.879928,12.83138 L120.879928,17.96042 C120.879928,18.5965832 121.009147,19.0488487 121.267588,19.31723 C121.526029,19.5856113 121.973325,19.7198 122.609488,19.7198 L123.951388,19.7198 C125.323115,19.7198 126.008968,18.9643676 126.008968,17.45348 Z M134.767368,28.03958 L132.858888,28.03958 C132.461286,28.03958 132.262488,27.8209022 132.262488,27.38354 L132.262488,25.3856 C132.262488,24.9482378 132.461286,24.72956 132.858888,24.72956 L133.485108,24.72956 C134.737554,24.72956 135.587416,24.5556117 136.034718,24.20771 C136.48202,23.8598083 136.824947,23.188865 137.063508,22.19486 L135.483048,22.19486 C135.105326,22.19486 134.856829,21.9861221 134.737548,21.56864 L131.248608,8.41802 C131.129327,8.00053791 131.278426,7.7918 131.695908,7.7918 L134.349888,7.7918 C134.74749,7.7918 134.995988,8.00053791 135.095388,8.41802 L137.659908,19.4216 L137.779188,19.4216 L140.313888,8.41802 C140.393408,8.00053791 140.641906,7.7918 141.059388,7.7918 L143.564268,7.7918 C144.06127,7.7918 144.260068,8.01047781 144.160668,8.44784 L140.522628,23 C140.085266,24.6500483 139.409353,25.9024757 138.494868,26.75732 C137.580383,27.6121643 136.337896,28.03958 134.767368,28.03958 Z" id="Be-Ready.io"></path>
                <path d="M154.882428,23 L153.673808,23 C152.958591,23 152.406343,22.8098819 152.017048,22.42964 C151.627753,22.0493981 151.433108,21.5016769 151.433108,20.78646 L151.433108,18.28774 C151.433108,17.5725231 151.627753,17.0248019 152.017048,16.64456 C152.406343,16.2643181 152.958591,16.0742 153.673808,16.0742 L154.882428,16.0742 C155.588592,16.0742 156.138576,16.2665814 156.532398,16.65135 C156.92622,17.0361186 157.123128,17.5815765 157.123128,18.28774 L157.123128,20.78646 C157.123128,21.4926235 156.92622,22.0380814 156.532398,22.42285 C156.138576,22.8076186 155.588592,23 154.882428,23 Z M153.931828,21.51978 L154.624408,21.51978 C154.914116,21.51978 155.120077,21.4609339 155.242298,21.34324 C155.364519,21.2255461 155.425628,21.0218481 155.425628,20.73214 L155.425628,18.34206 C155.425628,18.0523519 155.364519,17.8486539 155.242298,17.73096 C155.120077,17.6132661 154.914116,17.55442 154.624408,17.55442 L153.931828,17.55442 C153.64212,17.55442 153.438422,17.6132661 153.320728,17.73096 C153.203034,17.8486539 153.144188,18.0523519 153.144188,18.34206 L153.144188,20.73214 C153.144188,21.0218481 153.203034,21.2255461 153.320728,21.34324 C153.438422,21.4609339 153.64212,21.51978 153.931828,21.51978 Z" id="Combined-Shape" fill-opacity="0.34"></path>
                <path d="M27.6546038,0.230585111 C27.5408464,0.122319948 27.4046538,0.0679144385 27.2455367,0.0679144385 C24.2806759,0.0679144385 21.8326654,0.473100517 19.901511,1.28382658 C17.9705953,2.09467861 15.9371428,3.56750232 13.8014518,5.70229172 C12.8927831,6.6271134 11.8929773,7.74033289 10.8025116,9.04184823 L4.34453378,9.38422504 C4.16274036,9.40743886 4.01508491,9.49855459 3.90150834,9.65835203 L0.0846162348,16.2348804 C-0.0517589554,16.4631796 -0.0232305781,16.6858942 0.169783592,16.9028505 L1.26024805,17.9988006 C1.36254438,18.1016072 1.49307056,18.1528935 1.65218471,18.1528935 C1.72040216,18.1528935 1.77137097,18.147135 1.80544985,18.1356841 L6.50857516,16.6797159 L11.2968072,21.4922641 L9.84836385,26.2186236 C9.79172388,26.4243646 9.83714328,26.6068324 9.98474144,26.766748 L11.0752608,27.8628758 C11.2002388,27.9652668 11.3310061,28.0167927 11.4671987,28.0167927 C11.5696161,28.0167927 11.660455,27.9937591 11.7398882,27.9481714 L18.283452,24.1120807 C18.4425632,23.9979929 18.5332827,23.8497759 18.5560819,23.667067 L18.8967513,17.1763716 C20.1918729,16.0802416 21.2997006,15.0756471 22.2196495,14.1621684 C24.2423052,12.1183088 25.6817901,10.0606529 26.5391963,7.98854078 C27.3970143,5.91630872 27.8257174,3.45868531 27.8257174,0.616036446 C27.8255383,0.467641971 27.768779,0.339276161 27.6546038,0.230585111 Z M23.5315362,6.71282457 C23.2137257,7.03229348 22.8272848,7.19233085 22.3728579,7.19233085 C21.9184311,7.19233085 21.5324019,7.03247343 21.2141736,6.71282457 C20.8963631,6.39311572 20.7370729,6.00490512 20.7370729,5.54813878 C20.7370729,5.09160638 20.8961841,4.7033358 21.2141736,4.38362695 C21.5321632,4.06409806 21.9184311,3.90418665 22.3728579,3.90418665 C22.8272848,3.90418665 23.2135467,4.0639181 23.5315362,4.38362695 C23.8495258,4.7033358 24.0086429,5.09160638 24.0086429,5.54813878 C24.0086429,6.00497111 23.8499436,6.39287579 23.5315362,6.71282457 Z" id="Fill-1" transform="translate(13.912859, 14.042354) rotate(-360.000000) translate(-13.912859, -14.042354) "></path>
                <path d="M148.282548,22.71482 L148.282548,16.35938 C148.282548,16.169259 148.37308,16.0742 148.554148,16.0742 L149.722028,16.0742 C149.912149,16.0742 150.007208,16.169259 150.007208,16.35938 L150.007208,22.71482 C150.007208,22.8325139 149.986838,22.9094665 149.946098,22.94568 C149.905358,22.9818935 149.835195,23 149.735608,23 L148.567728,23 C148.377607,23 148.282548,22.904941 148.282548,22.71482 Z" id="Path" fill-opacity="0.34"></path>
                <path d="M148.282548,14.90632 L148.282548,13.72486 C148.282548,13.5437924 148.37308,13.45326 148.554148,13.45326 L149.735608,13.45326 C149.916676,13.45326 150.007208,13.5392658 150.007208,13.71128 L150.007208,14.90632 C150.007208,15.0873876 149.916676,15.17792 149.735608,15.17792 L148.554148,15.17792 C148.37308,15.17792 148.282548,15.0873876 148.282548,14.90632 Z" id="Path" fill-opacity="0.34"></path>
                <path d="M146.951708,21.04448 L146.951708,22.71482 C146.951708,22.904941 146.865702,23 146.693688,23 L145.485068,23 C145.304,23 145.213468,22.904941 145.213468,22.71482 L145.213468,21.05806 C145.213468,20.8769924 145.304,20.78646 145.485068,20.78646 L146.693688,20.78646 C146.865702,20.78646 146.951708,20.8724658 146.951708,21.04448 Z" id="Path" fill-opacity="0.34"></path>
            </g>
        </g>
    </g>
</svg>